<?xml version="1.0" encoding="UTF-8" standalone="no"?>
<svg
   xmlns:dc="http://purl.org/dc/elements/1.1/"
   xmlns:cc="http://creativecommons.org/ns#"
   xmlns:rdf="http://www.w3.org/1999/02/22-rdf-syntax-ns#"
   xmlns:svg="http://www.w3.org/2000/svg"
   xmlns="http://www.w3.org/2000/svg"
   id="svg8"
   version="1.1"
   viewBox="0 0 221.4482 168.38623"
   height="168.38623mm"
   width="221.4482mm">
  <defs
     id="defs2">
    <marker
       style="overflow:visible"
       id="TriangleOutL"
       refX="0"
       refY="0"
       orient="auto">
      <path
         transform="scale(0.8)"
         style="fill:#000000;fill-opacity:1;fill-rule:evenodd;stroke:#000000;stroke-width:1.00000003pt;stroke-opacity:1"
         d="M 5.77,0 -2.88,5 V -5 Z"
         id="path975" />
    </marker>
    <marker
       style="overflow:visible"
       id="Arrow2Send"
       refX="0"
       refY="0"
       orient="auto">
      <path
         transform="matrix(-0.3,0,0,-0.3,0.69,0)"
         d="M 8.7185878,4.0337352 -2.2072895,0.01601326 8.7185884,-4.0017078 c -1.7454984,2.3720609 -1.7354408,5.6174519 -6e-7,8.035443 z"
         style="fill:#000000;fill-opacity:1;fill-rule:evenodd;stroke:#000000;stroke-width:0.625;stroke-linejoin:round;stroke-opacity:1"
         id="path866" />
    </marker>
    <marker
       style="overflow:visible"
       id="Arrow2Lend"
       refX="0"
       refY="0"
       orient="auto">
      <path
         transform="matrix(-1.1,0,0,-1.1,-1.1,0)"
         d="M 8.7185878,4.0337352 -2.2072895,0.01601326 8.7185884,-4.0017078 c -1.7454984,2.3720609 -1.7354408,5.6174519 -6e-7,8.035443 z"
         style="fill:#000000;fill-opacity:1;fill-rule:evenodd;stroke:#000000;stroke-width:0.625;stroke-linejoin:round;stroke-opacity:1"
         id="path854" />
    </marker>
    <marker
       style="overflow:visible"
       id="marker19103"
       refX="0"
       refY="0"
       orient="auto">
      <path
         transform="matrix(0.8,0,0,0.8,10,0)"
         style="fill:url(#Strips1_1);fill-opacity:1;fill-rule:evenodd;stroke:#c0c0c0;stroke-width:1.00000003pt;stroke-opacity:1"
         d="M 0,0 5,-5 -12.5,0 5,5 Z"
         id="path19101" />
    </marker>
    <pattern
       id="Strips1_1"
       patternTransform="translate(0,0) scale(10,10)"
       height="1"
       width="2"
       patternUnits="userSpaceOnUse">
      <rect
         id="rect17146"
         height="2"
         width="1"
         y="-0.5"
         x="0"
         style="fill:black;stroke:none" />
    </pattern>
    <marker
       orient="auto"
       refY="0"
       refX="0"
       id="Arrow1Lend"
       style="overflow:visible">
      <path
         id="path836"
         d="M 0,0 5,-5 -12.5,0 5,5 Z"
         style="fill:#000000;fill-opacity:1;fill-rule:evenodd;stroke:#000000;stroke-width:1.00000003pt;stroke-opacity:1"
         transform="matrix(-0.8,0,0,-0.8,-10,0)" />
    </marker>
    <marker
       orient="auto"
       refY="0"
       refX="0"
       id="marker1129"
       style="overflow:visible">
      <path
         id="path1127"
         d="M 0,0 5,-5 -12.5,0 5,5 Z"
         style="fill:#000000;fill-opacity:1;fill-rule:evenodd;stroke:#000000;stroke-width:1.00000003pt;stroke-opacity:1"
         transform="matrix(0.8,0,0,0.8,10,0)" />
    </marker>
    <marker
       orient="auto"
       refY="0"
       refX="0"
       id="Arrow1Lstart"
       style="overflow:visible">
      <path
         id="path833"
         d="M 0,0 5,-5 -12.5,0 5,5 Z"
         style="fill:#000000;fill-opacity:1;fill-rule:evenodd;stroke:#000000;stroke-width:1.00000003pt;stroke-opacity:1"
         transform="matrix(0.8,0,0,0.8,10,0)" />
    </marker>
    <marker
       orient="auto"
       refY="0"
       refX="0"
       id="marker1129-3"
       style="overflow:visible">
      <path
         id="path1127-6"
         d="M 0,0 5,-5 -12.5,0 5,5 Z"
         style="fill:#000000;fill-opacity:1;fill-rule:evenodd;stroke:#000000;stroke-width:1.00000003pt;stroke-opacity:1"
         transform="matrix(0.8,0,0,0.8,10,0)" />
    </marker>
    <marker
       orient="auto"
       refY="0"
       refX="0"
       id="marker1129-3-5"
       style="overflow:visible">
      <path
         id="path1127-6-3"
         d="M 0,0 5,-5 -12.5,0 5,5 Z"
         style="fill:#000000;fill-opacity:1;fill-rule:evenodd;stroke:#000000;stroke-width:1.00000003pt;stroke-opacity:1"
         transform="matrix(0.8,0,0,0.8,10,0)" />
    </marker>
    <marker
       orient="auto"
       refY="0"
       refX="0"
       id="marker1129-3-5-6"
       style="overflow:visible">
      <path
         id="path1127-6-3-2"
         d="M 0,0 5,-5 -12.5,0 5,5 Z"
         style="fill:#000000;fill-opacity:1;fill-rule:evenodd;stroke:#000000;stroke-width:1.00000003pt;stroke-opacity:1"
         transform="matrix(0.8,0,0,0.8,10,0)" />
    </marker>
    <marker
       orient="auto"
       refY="0"
       refX="0"
       id="marker1129-1"
       style="overflow:visible">
      <path
         id="path1127-2"
         d="M 0,0 5,-5 -12.5,0 5,5 Z"
         style="fill:#000000;fill-opacity:1;fill-rule:evenodd;stroke:#000000;stroke-width:1.00000003pt;stroke-opacity:1"
         transform="matrix(0.8,0,0,0.8,10,0)" />
    </marker>
    <marker
       orient="auto"
       refY="0"
       refX="0"
       id="marker1129-1-0"
       style="overflow:visible">
      <path
         id="path1127-2-9"
         d="M 0,0 5,-5 -12.5,0 5,5 Z"
         style="fill:#000000;fill-opacity:1;fill-rule:evenodd;stroke:#000000;stroke-width:1.00000003pt;stroke-opacity:1"
         transform="matrix(0.8,0,0,0.8,10,0)" />
    </marker>
    <marker
       orient="auto"
       refY="0"
       refX="0"
       id="marker1129-1-0-6"
       style="overflow:visible">
      <path
         id="path1127-2-9-0"
         d="M 0,0 5,-5 -12.5,0 5,5 Z"
         style="fill:#000000;fill-opacity:1;fill-rule:evenodd;stroke:#000000;stroke-width:1.00000003pt;stroke-opacity:1"
         transform="matrix(0.8,0,0,0.8,10,0)" />
    </marker>
    <marker
       orient="auto"
       refY="0"
       refX="0"
       id="marker1129-1-2"
       style="overflow:visible">
      <path
         id="path1127-2-6"
         d="M 0,0 5,-5 -12.5,0 5,5 Z"
         style="fill:#000000;fill-opacity:1;fill-rule:evenodd;stroke:#000000;stroke-width:1.00000003pt;stroke-opacity:1"
         transform="matrix(0.8,0,0,0.8,10,0)" />
    </marker>
    <marker
       orient="auto"
       refY="0"
       refX="0"
       id="marker1129-1-2-8"
       style="overflow:visible">
      <path
         id="path1127-2-6-7"
         d="M 0,0 5,-5 -12.5,0 5,5 Z"
         style="fill:#000000;fill-opacity:1;fill-rule:evenodd;stroke:#000000;stroke-width:1.00000003pt;stroke-opacity:1"
         transform="matrix(0.8,0,0,0.8,10,0)" />
    </marker>
    <marker
       orient="auto"
       refY="0"
       refX="0"
       id="marker1129-2"
       style="overflow:visible">
      <path
         id="path1127-0"
         d="M 0,0 5,-5 -12.5,0 5,5 Z"
         style="fill:url(#Strips1_1);fill-opacity:1;fill-rule:evenodd;stroke:#c0c0c0;stroke-width:1.00000003pt;stroke-opacity:1"
         transform="matrix(0.8,0,0,0.8,10,0)" />
    </marker>
    <marker
       orient="auto"
       refY="0"
       refX="0"
       id="marker1129-1-3"
       style="overflow:visible">
      <path
         id="path1127-2-7"
         d="M 0,0 5,-5 -12.5,0 5,5 Z"
         style="fill:#c0c0c0;fill-opacity:1;fill-rule:evenodd;stroke:#c0c0c0;stroke-width:1.00000003pt;stroke-opacity:1"
         transform="matrix(0.8,0,0,0.8,10,0)" />
    </marker>
    <marker
       style="overflow:visible"
       id="marker19103-9"
       refX="0"
       refY="0"
       orient="auto">
      <path
         transform="matrix(0.8,0,0,0.8,10,0)"
         style="fill:url(#Strips1_1);fill-opacity:1;fill-rule:evenodd;stroke:#c0c0c0;stroke-width:1.00000003pt;stroke-opacity:1"
         d="M 0,0 5,-5 -12.5,0 5,5 Z"
         id="path19101-2" />
    </marker>
    <marker
       orient="auto"
       refY="0"
       refX="0"
       id="marker1129-1-2-89"
       style="overflow:visible">
      <path
         id="path1127-2-6-73"
         d="M 0,0 5,-5 -12.5,0 5,5 Z"
         style="fill:#000000;fill-opacity:1;fill-rule:evenodd;stroke:#000000;stroke-width:1.00000003pt;stroke-opacity:1"
         transform="matrix(0.8,0,0,0.8,10,0)" />
    </marker>
    <marker
       orient="auto"
       refY="0"
       refX="0"
       id="marker1129-1-1"
       style="overflow:visible">
      <path
         id="path1127-2-2"
         d="M 0,0 5,-5 -12.5,0 5,5 Z"
         style="fill:#000000;fill-opacity:1;fill-rule:evenodd;stroke:#000000;stroke-width:1.00000003pt;stroke-opacity:1"
         transform="matrix(0.8,0,0,0.8,10,0)" />
    </marker>
    <marker
       orient="auto"
       refY="0"
       refX="0"
       id="marker1129-1-2-8-3"
       style="overflow:visible">
      <path
         id="path1127-2-6-7-1"
         d="M 0,0 5,-5 -12.5,0 5,5 Z"
         style="fill:#000000;fill-opacity:1;fill-rule:evenodd;stroke:#000000;stroke-width:1.00000003pt;stroke-opacity:1"
         transform="matrix(0.8,0,0,0.8,10,0)" />
    </marker>
    <marker
       orient="auto"
       refY="0"
       refX="0"
       id="marker1129-4"
       style="overflow:visible">
      <path
         id="path1127-7"
         d="M 0,0 5,-5 -12.5,0 5,5 Z"
         style="fill:#000000;fill-opacity:1;fill-rule:evenodd;stroke:#000000;stroke-width:1.00000003pt;stroke-opacity:1"
         transform="matrix(0.8,0,0,0.8,10,0)" />
    </marker>
  </defs>
  <metadata
     id="metadata5">
    <rdf:RDF>
      <cc:Work
         rdf:about="">
        <dc:format>image/svg+xml</dc:format>
        <dc:type
           rdf:resource="http://purl.org/dc/dcmitype/StillImage" />
        <dc:title></dc:title>
      </cc:Work>
    </rdf:RDF>
  </metadata>
  <g
     id="layer1"
     transform="translate(27.054714,-39.443827)">
    <path
       style="fill:none;stroke:#000000;stroke-width:1.5;stroke-linecap:butt;stroke-linejoin:miter;stroke-miterlimit:4;stroke-dasharray:none;stroke-opacity:1"
       d="m 16.821276,197.21659 c 6.811213,-65.37006 43.692983,-55.54298 70.575858,-107.75138 70.767176,1.86645 76.069956,25.04393 87.558596,37.16202 -60.75899,31.32469 -53.45034,58.39651 -158.134454,70.58936 z"
       id="path829" />
    <path
       style="fill:none;stroke:#000000;stroke-width:0.40000001;stroke-linecap:butt;stroke-linejoin:miter;stroke-miterlimit:4;stroke-dasharray:none;stroke-opacity:1;marker-start:url(#marker1129)"
       d="m -7.716577,153.787 24.537853,43.42959"
       id="path831" />
    <path
       style="fill:none;stroke:#000000;stroke-width:0.40000001;stroke-linecap:butt;stroke-linejoin:miter;stroke-miterlimit:4;stroke-dasharray:none;stroke-opacity:1;marker-start:url(#marker1129-1)"
       d="m 79.165225,40.209744 8.244827,49.320281"
       id="path831-7" />
    <path
       style="fill:none;stroke:#000000;stroke-width:0.40000001;stroke-linecap:butt;stroke-linejoin:miter;stroke-miterlimit:4;stroke-dasharray:none;stroke-opacity:1;marker-start:url(#marker1129-1-2)"
       d="M 194.09681,80.361127 174.9931,126.57275"
       id="path831-7-1" />
    <path
       style="fill:none;stroke:#000000;stroke-width:0.40000001;stroke-linecap:butt;stroke-linejoin:miter;stroke-miterlimit:4;stroke-dasharray:none;stroke-opacity:1;marker-start:url(#marker1129-1-2-8)"
       d="M 31.553054,156.10678 16.80702,197.20245"
       id="path831-7-1-9" />
    <path
       style="fill:none;stroke:#c0c0c0;stroke-width:0.40000001;stroke-linecap:butt;stroke-linejoin:miter;stroke-miterlimit:4;stroke-dasharray:2.39999999, 0.4;stroke-dashoffset:0;stroke-opacity:1;marker-start:url(#marker1129-2)"
       d="M 40.134099,81.546322 56.86103,127.74012"
       id="path831-2" />
    <path
       style="fill:none;stroke:#c0c0c0;stroke-width:0.40000001;stroke-linecap:butt;stroke-linejoin:miter;stroke-miterlimit:4;stroke-dasharray:2.39999999, 0.4;stroke-dashoffset:0;stroke-opacity:1;marker-start:url(#marker19103)"
       d="m 159.03383,53.808429 -8.26232,49.317351"
       id="path831-7-5" />
    <path
       style="fill:none;stroke:#c0c0c0;stroke-width:0.40000001;stroke-linecap:butt;stroke-linejoin:miter;stroke-miterlimit:4;stroke-dasharray:2.40000002, 0.4;stroke-dashoffset:0;stroke-opacity:1;marker-start:url(#marker19103-9)"
       d="m 119.02094,118.48765 -3.26913,49.31736"
       id="path831-7-5-2" />
    <g
       transform="matrix(10.071424,0,0,10.071424,-132.51088,-398.90916)"
       id="g20609">
      <g
         style="font-style:normal;font-variant:normal;font-weight:normal;font-stretch:normal;letter-spacing:normal;word-spacing:normal;text-anchor:start;fill:none;fill-opacity:1;fill-rule:evenodd;stroke:#000000;stroke-linecap:butt;stroke-linejoin:miter;stroke-miterlimit:10.43299961;stroke-dasharray:none;stroke-dashoffset:0;stroke-opacity:1"
         id="content"
         transform="matrix(0.0430722,0,0,-0.0430722,-7.5376347,62.214907)"
         xml:space="preserve"
         stroke-miterlimit="10.433"
         font-style="normal"
         font-variant="normal"
         font-weight="normal"
         font-stretch="normal"
         font-size-adjust="none"
         letter-spacing="normal"
         word-spacing="normal"><path
           style="fill:#000000;stroke-width:0"
           d="m 497.02261,49.567858 -0.12605,-0.199018 -0.11941,-0.192383 -0.12604,-0.18575 -0.12605,-0.172482 -0.11941,-0.165847 -0.12604,-0.152581 -0.12605,-0.145946 -0.11941,-0.139312 -0.12604,-0.132678 -0.12604,-0.119411 -0.11942,-0.112776 -0.12604,-0.106143 -0.12604,-0.09951 -0.11941,-0.09288 -0.12605,-0.08624 -0.12604,-0.07961 -0.12605,-0.07297 -0.12604,-0.06634 -0.12605,-0.0597 -0.12604,-0.0597 -0.12605,-0.04644 -0.13267,-0.04644 -0.12605,-0.04644 -0.13268,-0.03317 -0.12604,-0.03317 -0.13268,-0.02654 -0.13268,-0.02654 -0.12604,-0.0199 -0.27199,-0.03317 -0.26536,-0.0199 c -0.40467,-0.03317 -0.69656,-0.03317 -0.69656,-0.663392 0,-0.199017 0.16585,-0.364865 0.42457,-0.364865 0.88895,0 1.9172,0.106143 2.83932,0.106143 1.08796,0 2.24889,-0.106143 3.31032,-0.106143 0.19238,0 0.63022,0 0.63022,0.630222 0,0.364865 -0.29852,0.398035 -0.53071,0.398035 -0.7629,0.05971 -1.55234,0.331696 -1.55234,1.147668 0,0.404668 0.19902,0.769534 0.45774,1.22064 l 2.51426,4.239073 h 8.29239 l -0.0929,1.021623 h -7.57593 l 6.52114,10.912793 1.05479,-10.912793 0.0929,-1.021623 c 0.073,-0.689928 0.53072,-5.187723 0.53072,-5.519419 0,-0.995087 -1.71819,-1.087962 -2.37495,-1.087962 -0.46437,0 -0.79607,0 -0.79607,-0.663392 0,-0.364865 0.39141,-0.364865 0.46438,-0.364865 1.34668,0 2.77961,0.106143 4.12629,0.106143 0.82924,0 2.91229,-0.106143 3.74153,-0.106143 0.19902,0 0.59042,0 0.59042,0.663392 0,0.364865 -0.33169,0.364865 -0.75627,0.364865 -2.04988,0 -2.04988,0.225553 -2.15602,1.187471 l -2.01007,20.651386 c -0.073,0.66339 -0.073,0.79607 -0.63023,0.79607 -0.53071,0 -0.65675,-0.22556 -0.86241,-0.55725 z"
           id="path20602" /><path
           style="fill:#000000;stroke-width:0"
           d="m 653.06449,316.61073 -0.0265,-0.11941 -0.0332,-0.11277 -0.0265,-0.10615 -0.0265,-0.0995 -0.0332,-0.0995 -0.0265,-0.0863 -0.0332,-0.0862 -0.0332,-0.0796 -0.0398,-0.073 -0.0332,-0.073 -0.0464,-0.0663 -0.0464,-0.0597 -0.0531,-0.0597 -0.0531,-0.0464 -0.0663,-0.0531 -0.0663,-0.0398 -0.0796,-0.0464 -0.0796,-0.0332 -0.0929,-0.0332 -0.0929,-0.0332 -0.11277,-0.0265 -0.0531,-0.0133 -0.0597,-0.007 -0.0597,-0.0133 -0.0663,-0.0133 -0.0663,-0.007 -0.073,-0.007 -0.073,-0.007 -0.073,-0.0133 -0.0796,-0.007 -0.0796,-0.007 h -0.0862 l -0.0862,-0.007 -0.0862,-0.007 h -0.0929 l -0.0995,-0.007 h -0.0995 l -0.0995,-0.007 h -0.10614 -0.11278 -0.11277 -0.11942 -0.11941 c -0.55724,0 -0.88894,0 -0.88894,-0.66339 0,-0.36487 0.29853,-0.36487 0.88894,-0.36487 h 11.79511 c 5.22752,0 9.12163,3.89411 9.12163,7.13809 0,2.37495 -1.9172,4.29215 -5.11475,4.65701 3.43637,0.63022 6.91254,3.07814 6.91254,6.22262 0,2.44128 -2.18919,4.5575 -6.15627,4.5575 l -0.45774,-1.02826 c 2.89902,0 3.59558,-1.94374 3.59558,-3.39657 0,-2.91228 -2.83931,-6.05676 -6.87274,-6.05676 h -4.81622 l -0.19902,-0.7231 h 6.24252 c 3.17101,0 3.80123,-2.44791 3.80123,-3.86757 0,-3.27716 -2.94546,-6.4747 -6.83956,-6.4747 h -4.4978 c -0.45774,0 -0.53071,0 -0.72973,0.0265 -0.3317,0.0332 -0.42457,0.0663 -0.42457,0.3317 0,0.0929 0,0.16585 0.16585,0.75626 l 2.28206,9.22778 0.19902,0.7231 2.03661,8.19952 c 0.30516,1.1543 0.36487,1.25381 1.79779,1.25381 h 4.25898 l 0.45774,1.02826 h -11.10518 c -0.62358,0 -0.95528,0 -0.95528,-0.6634 0,-0.36486 0.29189,-0.36486 0.92875,-0.36486 0.0597,0 0.68993,0 1.25381,-0.0597 0.59042,-0.073 0.88894,-0.10614 0.88894,-0.53071 0,-0.13268 -0.0332,-0.23882 -0.13268,-0.63022 z"
           id="path20604" /><path
           style="fill:#000000;stroke-width:0"
           d="m 908.35942,230.42276 v 0.0133 0.0133 0.007 0.0133 l -0.007,0.0133 v 0.0133 0.0133 l -0.007,0.0133 -0.007,0.0133 v 0.0133 l -0.007,0.0133 -0.007,0.0133 -0.007,0.0133 -0.007,0.0133 -0.0133,0.0133 -0.007,0.0133 -0.0133,0.0133 -0.007,0.0133 -0.0133,0.0133 -0.0133,0.0133 -0.0133,0.007 -0.0199,0.0133 -0.0133,0.007 -0.0199,0.0133 -0.0199,0.007 -0.007,0.007 h -0.0133 l -0.007,0.007 h -0.0133 l -0.007,0.007 h -0.0133 -0.0133 l -0.0133,0.007 h -0.0133 -0.007 -0.0133 -0.0133 -0.0133 -0.0133 c -0.0995,0 -0.13931,-0.0265 -0.49754,-0.3914 l -2.31524,-2.54742 c -0.29189,0.46437 -1.81106,2.93882 -5.47962,2.93882 -7.37691,0 -14.81353,-7.30394 -14.81353,-14.96611 0,-5.45972 3.90738,-9.0553 8.96242,-9.0553 2.87249,0 5.38011,1.31352 7.13146,2.83932 3.07814,2.71327 3.64202,5.71843 3.64202,5.81131 0,0.33169 -0.3317,0.33169 -0.39804,0.33169 -0.19238,0 -0.35823,-0.0597 -0.4312,-0.33169 -0.29189,-0.95528 -1.06143,-3.30369 -3.34349,-5.22089 -2.27544,-1.84423 -4.35849,-2.40811 -6.07004,-2.40811 -2.97199,0 -6.48133,1.72481 -6.48133,6.87273 0,1.89067 0.69656,7.23761 3.99361,11.10518 2.02335,2.3484 5.12802,4.00025 8.06021,4.00025 3.3833,0 5.33367,-2.54079 5.33367,-6.37519 0,-1.32679 -0.10614,-1.35996 -0.10614,-1.69165 0,-0.3317 0.36486,-0.3317 0.49754,-0.3317 0.42457,0 0.42457,0.073 0.59042,0.66339 z"
           id="path20606" /></g>    </g>
    <path
       style="fill:none;stroke:#000000;stroke-width:0.96856529;stroke-linecap:butt;stroke-linejoin:miter;stroke-miterlimit:4;stroke-dasharray:none;stroke-opacity:1"
       d="m 193.48177,81.81978 -18.5032,44.75897"
       id="path831-7-1-6" />
    <path
       style="fill:none;stroke:#000000;stroke-width:1;stroke-linecap:butt;stroke-linejoin:miter;stroke-miterlimit:4;stroke-dasharray:none;stroke-opacity:1"
       d="m 79.546212,42.556805 7.769347,47.256698"
       id="path831-7-9" />
    <path
       style="fill:none;stroke:#000000;stroke-width:0.97206235;stroke-linecap:butt;stroke-linejoin:miter;stroke-miterlimit:4;stroke-dasharray:none;stroke-opacity:1"
       d="M 31.127936,157.25961 16.793872,197.20717"
       id="path831-7-1-9-9" />
    <path
       style="fill:none;stroke:#000000;stroke-width:0.97149354;stroke-linecap:butt;stroke-linejoin:miter;stroke-miterlimit:4;stroke-dasharray:none;stroke-opacity:1"
       d="M -7.0046799,155.03203 16.833686,197.2236"
       id="path831-8" />
    <g
       transform="matrix(1.7911984,0,0,1.7911984,-148.54449,66.482176)"
       id="g21375">
      <g
         style="font-style:normal;font-variant:normal;font-weight:normal;font-stretch:normal;letter-spacing:normal;word-spacing:normal;text-anchor:start;fill:none;fill-opacity:1;fill-rule:evenodd;stroke:#000000;stroke-linecap:butt;stroke-linejoin:miter;stroke-miterlimit:10.43299961;stroke-dasharray:none;stroke-dashoffset:0;stroke-opacity:1"
         id="g21373"
         transform="matrix(0.24055176,0,0,-0.24055176,-42.096558,151.86904)"
         xml:space="preserve"
         stroke-miterlimit="10.433"
         font-style="normal"
         font-variant="normal"
         font-weight="normal"
         font-stretch="normal"
         font-size-adjust="none"
         letter-spacing="normal"
         word-spacing="normal"><path
           style="fill:#000000;stroke-width:0"
           d="m 472.96,409 0.05,-0.19 0.06,-0.19 0.07,-0.18 0.08,-0.18 0.08,-0.17 0.09,-0.16 0.09,-0.16 0.1,-0.16 0.11,-0.15 0.11,-0.15 0.11,-0.14 0.13,-0.13 0.12,-0.13 0.14,-0.12 0.14,-0.12 0.14,-0.11 0.15,-0.11 0.15,-0.1 0.15,-0.09 0.16,-0.09 0.17,-0.08 0.17,-0.07 0.17,-0.07 0.18,-0.06 0.17,-0.06 0.19,-0.04 0.18,-0.05 0.19,-0.03 0.19,-0.02 0.2,-0.02 0.2,-0.01 0.19,-0.01 c 1.74,0 2.9,1.14 3.69,2.74 0.85,1.79 1.49,4.84 1.49,4.93 0,0.5 -0.44,0.5 -0.6,0.5 -0.5,0 -0.54,-0.2 -0.7,-0.9 -0.69,-2.78 -1.64,-6.17 -3.73,-6.17 -1.05,0 -1.54,0.65 -1.54,2.29 0,1.1 0.6,3.44 0.99,5.17 l 1.4,5.4 c 0.15,0.75 0.65,2.64 0.85,3.39 0.25,1.14 0.75,3.03 0.75,3.32 0,0.91 -0.7,1.35 -1.45,1.35 -0.25,0 -1.55,-0.05 -1.94,-1.74 -0.96,-3.64 -3.14,-12.36 -3.74,-15 -0.06,-0.2 -2.04,-4.18 -5.68,-4.18 -2.6,0 -3.1,2.25 -3.1,4.09 0,2.78 1.41,6.72 2.71,10.16 0.59,1.5 0.84,2.18 0.84,3.14 0,2.23 -1.59,4.07 -4.09,4.07 -4.74,0 -6.58,-7.21 -6.58,-7.67 0,-0.5 0.5,-0.5 0.61,-0.5 0.5,0 0.54,0.11 0.79,0.91 1.24,4.33 3.14,6.17 5.03,6.17 0.44,0 1.25,-0.05 1.25,-1.64 0,-1.2 -0.56,-2.64 -0.85,-3.39 -1.85,-4.94 -2.9,-8.02 -2.9,-10.45 0,-4.74 3.44,-5.99 6.15,-5.99 3.28,0 5.07,2.24 5.92,3.35 z"
           id="path21367" /><path
           style="fill:#000000;stroke-width:0"
           d="m 495.38,420.54 -0.01,0.05 v 0.06 l -0.01,0.05 -0.01,0.06 -0.01,0.05 -0.01,0.06 -0.02,0.05 -0.02,0.06 -0.02,0.06 -0.02,0.05 -0.03,0.06 -0.03,0.05 -0.03,0.06 -0.04,0.05 -0.04,0.05 -0.04,0.05 -0.04,0.05 -0.05,0.05 -0.05,0.04 -0.05,0.05 -0.06,0.04 -0.06,0.03 -0.06,0.04 -0.07,0.03 -0.06,0.03 -0.08,0.03 -0.07,0.02 -0.08,0.02 -0.08,0.01 -0.08,0.01 -0.09,0.01 h -0.09 c -0.94,0 -1.95,-0.91 -1.95,-1.92 0,-0.59 0.45,-1.33 1.4,-1.33 1,0 1.96,0.99 1.96,1.92 z"
           id="path21369" /><path
           style="fill:#000000;stroke-width:0"
           d="m 488.27,402.84 -0.06,-0.17 -0.05,-0.17 -0.03,-0.08 -0.02,-0.09 -0.03,-0.08 -0.02,-0.09 -0.03,-0.09 -0.02,-0.09 -0.01,-0.1 -0.02,-0.09 -0.01,-0.1 -0.01,-0.05 v -0.05 -0.06 l -0.01,-0.05 v -0.05 -0.06 c 0,-1.64 1.39,-2.95 3.3,-2.95 3.48,0 5.03,4.79 5.03,5.33 0,0.45 -0.45,0.45 -0.56,0.45 -0.49,0 -0.53,-0.2 -0.67,-0.59 -0.8,-2.79 -2.33,-4.22 -3.69,-4.22 -0.7,0 -0.88,0.45 -0.88,1.22 0,0.79 0.25,1.46 0.57,2.23 0.34,0.94 0.73,1.87 1.11,2.78 0.31,0.84 1.57,4.02 1.72,4.44 0.09,0.34 0.2,0.76 0.2,1.11 0,1.64 -1.39,2.95 -3.31,2.95 -3.46,0 -5.05,-4.73 -5.05,-5.33 0,-0.45 0.48,-0.45 0.59,-0.45 0.49,0 0.52,0.17 0.63,0.56 0.9,3 2.44,4.25 3.72,4.25 0.56,0 0.87,-0.28 0.87,-1.22 0,-0.79 -0.2,-1.32 -1.08,-3.48 z"
           id="path21371" /></g>    </g>
  </g>
</svg>
